<?xml version="1.0" encoding="iso-8859-1"?>
<!-- Generator: Adobe Illustrator 19.0.0, SVG Export Plug-In . SVG Version: 6.00 Build 0)  -->
<svg version="1.1" id="Capa_1" xmlns="http://www.w3.org/2000/svg" xmlns:xlink="http://www.w3.org/1999/xlink" x="0px" y="0px"
	 viewBox="0 0 512 512" style="enable-background:new 0 0 512 512;" xml:space="preserve">
<rect x="131.39" style="fill:#E9EDF5;" width="249.22" height="144.5"/>
<rect x="256" style="fill:#DCE1EB;" width="124.61" height="144.5"/>
<polygon style="fill:#707789;" points="23.818,129.505 23.818,391.154 146.388,391.154 365.612,391.154 488.182,391.154 
	488.182,129.505 "/>
<polygon style="fill:#555A66;" points="256,129.505 256,391.154 317.285,391.154 426.897,391.154 488.182,391.154 488.182,129.505 
	"/>
<rect x="350.61" y="179.19" style="fill:#FFE733;" width="30" height="30"/>
<rect x="350.61" y="237.8" style="fill:#64E1DC;" width="30" height="30"/>
<path style="fill:#E9EDF5;" d="M380.612,512H131.388V305.327h249.225V512H380.612z"/>
<path style="fill:#DCE1EB;" d="M380.612,512H256V305.327h124.612V512z"/>
<g>
	<rect x="198.13" y="378.66" style="fill:#555A66;" width="115.74" height="30"/>
	<rect x="198.13" y="437.55" style="fill:#555A66;" width="115.74" height="30"/>
</g>
<g>
	<rect x="256" y="378.66" style="fill:#414952;" width="57.87" height="30"/>
	<rect x="256" y="437.55" style="fill:#414952;" width="57.87" height="30"/>
</g>
<rect x="108.81" y="302.49" style="fill:#19CFFC;" width="294.38" height="30"/>
<rect x="256" y="302.49" style="fill:#1EA1E3;" width="147.19" height="30"/>
<g>
</g>
<g>
</g>
<g>
</g>
<g>
</g>
<g>
</g>
<g>
</g>
<g>
</g>
<g>
</g>
<g>
</g>
<g>
</g>
<g>
</g>
<g>
</g>
<g>
</g>
<g>
</g>
<g>
</g>
</svg>
